Starting At,Valid Walks,Weights
[0 0 0 0 0 0 0 0],2479092118264.0,1.0
[0 0 0 0 0 0 0 1],3937972916499.0,8.0
[0 0 0 0 0 0 0 2],4491443606043.0,8.0
[0 0 0 0 0 0 0 3],4637031423516.0,8.0
[0 0 0 0 0 0 0 4],4664885264421.0,8.0
[0 0 0 0 0 0 0 5],4668842666485.0,8.0
[0 0 0 0 0 0 1 1],6240165777842.0,28.0
[0 0 0 0 0 0 1 2],7104192764216.0,56.0
[0 0 0 0 0 0 1 3],7328305954439.0,56.0
[0 0 0 0 0 0 1 4],7370458262912.0,56.0
[0 0 0 0 0 0 1 5],7376329465326.0,56.0
[0 0 0 0 0 0 2 2],8077161812918.0,28.0
[0 0 0 0 0 0 2 3],8327125135735.0,56.0
[0 0 0 0 0 0 2 4],8373629016840.0,56.0
[0 0 0 0 0 0 2 5],8380030193116.0,56.0
[0 0 0 0 0 0 3 3],8582735757616.0,28.0
[0 0 0 0 0 0 3 4],8630097734366.0,56.0
[0 0 0 0 0 0 3 5],8636591172207.0,56.0
[0 0 0 0 0 0 4 4],8677574393310.0,28.0
[0 0 0 0 0 0 4 5],8684078321488.0,56.0
[0 0 0 0 0 0 5 5],8690583025166.0,28.0
[0 0 0 0 0 1 1 1],9863430612613.0,56.0
[0 0 0 0 0 1 1 2],11208145839205.0,168.0
[0 0 0 0 0 1 1 3],11551910384086.0,168.0
[0 0 0 0 0 1 1 4],11615434373197.0,168.0
[0 0 0 0 0 1 1 5],11624101550771.0,168.0
[0 0 0 0 0 1 2 2],12719151844165.0,168.0
[0 0 0 0 0 1 2 3],13101661116540.0,336.0
[0 0 0 0 0 1 2 4],13171561196933.0,336.0
[0 0 0 0 0 1 2 5],13180984039659.0,336.0
[0 0 0 0 0 1 3 3],13492452723459.0,168.0
[0 0 0 0 0 1 3 4],13563577583221.0,336.0
[0 0 0 0 0 1 3 5],13573127750936.0,336.0
[0 0 0 0 0 1 4 4],13634860728737.0,168.0
[0 0 0 0 0 1 4 5],13644424778529.0,336.0
[0 0 0 0 0 1 5 5],13653989797861.0,168.0
[0 0 0 0 0 2 2 2],14414564728573.0,56.0
[0 0 0 0 0 2 2 3],14839553305442.0,168.0
[0 0 0 0 0 2 2 4],14916354186027.0,168.0
[0 0 0 0 0 2 2 5],14926583381575.0,168.0
[0 0 0 0 0 2 3 3],15273509898775.0,168.0
[0 0 0 0 0 2 3 4],15351618302929.0,336.0
[0 0 0 0 0 2 3 5],15361981362086.0,336.0
[0 0 0 0 0 2 4 4],15429893131429.0,168.0
[0 0 0 0 0 2 4 5],15440270546675.0,336.0
[0 0 0 0 0 2 5 5],15450648948093.0,168.0
[0 0 0 0 0 3 3 3],15716543122462.0,56.0
[0 0 0 0 0 3 3 4],15795969784755.0,168.0
[0 0 0 0 0 3 3 5],15806467335841.0,168.0
[0 0 0 0 0 3 4 4],15875563654484.0,168.0
[0 0 0 0 0 3 4 5],15886075589379.0,336.0
[0 0 0 0 0 3 5 5],15896588510446.0,168.0
[0 0 0 0 0 4 4 4],15955324766299.0,56.0
[0 0 0 0 0 4 4 5],15965851085003.0,168.0
[0 0 0 0 0 4 5 5],15976378389879.0,168.0
[0 0 0 0 0 5 5 5],15986906680927.0,56.0
[0 0 0 0 1 1 1 1],15550052970972.0,70.0
[0 0 0 0 1 1 1 2],17636238768690.0,280.0
[0 0 0 0 1 1 1 3],18161584869177.0,280.0
[0 0 0 0 1 1 1 4],18256898677536.0,280.0
[0 0 0 0 1 1 1 5],18269627045980.0,280.0
[0 0 0 0 1 1 2 2],19975238196576.0,420.0
[0 0 0 0 1 1 2 3],20558377653497.0,840.0
[0 0 0 0 1 1 2 4],20662980353248.0,840.0
[0 0 0 0 1 1 2 5],20676778542554.0,840.0
[0 0 0 0 1 1 3 3],21153594382262.0,420.0
[0 0 0 0 1 1 3 4],21259932841566.0,840.0
[0 0 0 0 1 1 3 5],21273905239885.0,840.0
[0 0 0 0 1 1 4 4],21366487901188.0,420.0
[0 0 0 0 1 1 4 5],21380478465908.0,840.0
[0 0 0 0 1 1 5 5],21394470227472.0,420.0
[0 0 0 0 1 2 2 2],22593867665790.0,280.0
[0 0 0 0 1 2 2 3],23240190605425.0,840.0
[0 0 0 0 1 2 2 4],23354815027238.0,840.0
[0 0 0 0 1 2 2 5],23369750970876.0,840.0
[0 0 0 0 1 2 3 3],23899549443804.0,840.0
[0 0 0 0 1 2 3 4],24016020657630.0,1680.0
[0 0 0 0 1 2 3 5],24031139095261.0,1680.0
[0 0 0 0 1 2 4 4],24132718786386.0,840.0
[0 0 0 0 1 2 4 5],24147855947590.0,1680.0
[0 0 0 0 1 2 5 5],24162994322270.0,840.0
[0 0 0 0 1 3 3 3],24572090078217.0,280.0
[0 0 0 0 1 3 3 4],24690421701506.0,840.0
[0 0 0 0 1 3 3 5],24705723372330.0,840.0
[0 0 0 0 1 3 4 4],24808981161415.0,840.0
[0 0 0 0 1 3 4 5],24824301583532.0,1680.0
[0 0 0 0 1 3 5 5],24839623219125.0,840.0
[0 0 0 0 1 4 4 4],24927768492594.0,280.0
[0 0 0 0 1 4 4 5],24943107666004.0,840.0
[0 0 0 0 1 4 5 5],24958448052890.0,840.0
[0 0 0 0 1 5 5 5],24973789653252.0,280.0
[0 0 0 0 2 2 2 2],25521305146692.0,70.0
[0 0 0 0 2 2 2 3],26236595079081.0,280.0
[0 0 0 0 2 2 2 4],26362015300986.0,280.0
[0 0 0 0 2 2 2 5],26378159510386.0,280.0
[0 0 0 0 2 2 3 3],26965933891414.0,420.0
[0 0 0 0 2 2 3 4],27093316192812.0,840.0
[0 0 0 0 2 2 3 5],27109651347505.0,840.0
[0 0 0 0 2 2 4 4],27220935931652.0,420.0
[0 0 0 0 2 2 4 5],27237290367090.0,840.0
[0 0 0 0 2 2 5 5],27253646032636.0,420.0
[0 0 0 0 2 3 3 3],27709473117381.0,280.0
[0 0 0 0 2 3 3 4],27838831392922.0,840.0
[0 0 0 0 2 3 3 5],27855358232108.0,840.0
[0 0 0 0 2 3 4 4],27968428027595.0,840.0
[0 0 0 0 2 3 4 5],27984974175246.0,1680.0
[0 0 0 0 2 3 5 5],28001521553005.0,840.0
[0 0 0 0 2 4 4 4],28098263056050.0,280.0
[0 0 0 0 2 4 4 5],28114828512166.0,840.0
[0 0 0 0 2 4 5 5],28131395198390.0,840.0
[0 0 0 0 2 5 5 5],28147963114722.0,280.0
[0 0 0 0 3 3 3 3],28467364660272.0,70.0
[0 0 0 0 3 3 3 4],28598712804606.0,280.0
[0 0 0 0 3 3 3 5],28615432067485.0,280.0
[0 0 0 0 3 3 4 4],28730300229762.0,420.0
[0 0 0 0 3 3 4 5],28747038828826.0,840.0
[0 0 0 0 3 3 5 5],28763778657998.0,420.0
[0 0 0 0 3 4 4 4],28862126970390.0,280.0
[0 0 0 0 3 4 4 5],28878884905639.0,840.0
[0 0 0 0 3 4 5 5],28895644070996.0,840.0
[0 0 0 0 3 5 5 5],28912404466461.0,280.0
[0 0 0 0 4 4 4 4],28994193061140.0,70.0
[0 0 0 0 4 4 4 5],29010970332574.0,280.0
[0 0 0 0 4 4 5 5],29027748834116.0,420.0
[0 0 0 0 4 5 5 5],29044528565766.0,280.0
[0 0 0 0 5 5 5 5],29061309527524.0,70.0
[0 0 0 1 1 1 1 1],24449466769319.0,56.0
[0 0 0 1 1 1 1 2],27675307410671.0,280.0
[0 0 0 1 1 1 1 3],28475058707432.0,280.0
[0 0 0 1 1 1 1 4],28617421518869.0,280.0
[0 0 0 1 1 1 1 5],28636012955073.0,280.0
[0 0 0 1 1 1 2 2],31283895162791.0,560.0
[0 0 0 1 1 1 2 3],32169423598846.0,1120.0
[0 0 0 1 1 1 2 4],32325236881845.0,1120.0
[0 0 0 1 1 1 2 5],32345331757921.0,1120.0
[0 0 0 1 1 1 3 3],33072456577825.0,560.0
[0 0 0 1 1 1 3 4],33230711707781.0,1120.0
[0 0 0 1 1 1 3 5],33251042768454.0,1120.0
[0 0 0 1 1 1 4 4],33389260538463.0,560.0
[0 0 0 1 1 1 4 5],33409615108765.0,1120.0
[0 0 0 1 1 1 5 5],33429971136479.0,560.0
[0 0 0 1 1 2 2 2],35314706548919.0,560.0
[0 0 0 1 1 2 2 3],36293737521948.0,1680.0
[0 0 0 1 1 2 2 4],36464016213619.0,1680.0
[0 0 0 1 1 2 2 5],36485704532117.0,1680.0
[0 0 0 1 1 2 3 3],37291602045581.0,1680.0
[0 0 0 1 1 2 3 4],37464469860569.0,3360.0
[0 0 0 1 1 2 3 5],37486404727644.0,3360.0
[0 0 0 1 1 2 4 4],37637644282715.0,1680.0
[0 0 0 1 1 2 4 5],37659603299751.0,3360.0
[0 0 0 1 1 2 5 5],37681563790831.0,1680.0
[0 0 0 1 1 3 3 3],38308493834108.0,560.0
[0 0 0 1 1 3 3 4],38483967827143.0,1680.0
[0 0 0 1 1 3 3 5],38506150092875.0,1680.0
[0 0 0 1 1 3 4 4],38659749487626.0,1680.0
[0 0 0 1 1 3 4 5],38681955931039.0,3360.0
[0 0 0 1 1 3 5 5],38704163848496.0,1680.0
[0 0 0 1 1 4 4 4],38835838850207.0,560.0
[0 0 0 1 1 4 4 5],38858069471301.0,1680.0
[0 0 0 1 1 4 5 5],38880301566439.0,1680.0
[0 0 0 1 1 5 5 5],38902535135621.0,560.0
[0 0 0 1 2 2 2 2],39810557058695.0,280.0
[0 0 0 1 2 2 2 3],40891351137938.0,1120.0
[0 0 0 1 2 2 2 4],41077163148311.0,1120.0
[0 0 0 1 2 2 2 5],41100537988701.0,1120.0
[0 0 0 1 2 2 3 3],41992377652965.0,1680.0
[0 0 0 1 2 2 3 4],42180931149635.0,3360.0
[0 0 0 1 2 2 3 5],42204563068902.0,3360.0
[0 0 0 1 2 2 4 4],42369804367795.0,1680.0
[0 0 0 1 2 2 4 5],42393461077355.0,3360.0
[0 0 0 1 2 2 5 5],42417119277591.0,1680.0
[0 0 0 1 2 3 3 3],43113837063266.0,1120.0
[0 0 0 1 2 3 3 4],43305149378163.0,3360.0
[0 0 0 1 2 3 3 5],43329039226387.0,3360.0
[0 0 0 1 2 3 4 4],43496782474840.0,3360.0
[0 0 0 1 2 3 4 5],43520697141077.0,6720.0
[0 0 0 1 2 3 5 5],43544613297990.0,3360.0
[0 0 0 1 2 4 4 4],43688736387947.0,1120.0
[0 0 0 1 2 4 4 5],43712675872197.0,3360.0
[0 0 0 1 2 4 5 5],43736616847123.0,3360.0
[0 0 0 1 2 5 5 5],43760559312725.0,1120.0
[0 0 0 1 3 3 3 3],44255930197931.0,280.0
[0 0 0 1 3 3 3 4],44450018662985.0,1120.0
[0 0 0 1 3 3 3 5],44474167290246.0,1120.0
[0 0 0 1 3 3 4 4],44644428970109.0,1680.0
[0 0 0 1 3 3 4 5],44668602443103.0,3360.0
[0 0 0 1 3 3 5 5],44692777406773.0,1680.0
[0 0 0 1 3 4 4 4],44839161153953.0,1120.0
[0 0 0 1 3 4 4 5],44863359472680.0,3360.0
[0 0 0 1 3 4 5 5],44887559282083.0,3360.0
[0 0 0 1 3 5 5 5],44911760582162.0,1120.0
[0 0 0 1 4 4 4 4],45034215249167.0,280.0
[0 0 0 1 4 4 4 5],45058438413627.0,1120.0
[0 0 0 1 4 4 5 5],45082663068763.0,1680.0
[0 0 0 1 4 5 5 5],45106889214575.0,1120.0
[0 0 0 1 5 5 5 5],45131116851063.0,280.0
[0 0 0 2 2 2 2 2],44817807384959.0,56.0
[0 0 0 2 2 2 2 3],46009183180216.0,280.0
[0 0 0 2 2 2 2 4],46211650639641.0,280.0
[0 0 0 2 2 2 2 5],46236808158313.0,280.0
[0 0 0 2 2 2 3 3],47222261837137.0,560.0
[0 0 0 2 2 2 3 4],47427628232459.0,1120.0
[0 0 0 2 2 2 3 5],47453053526628.0,1120.0
[0 0 0 2 2 2 4 4],47633327671503.0,560.0
[0 0 0 2 2 2 4 5],47658778396297.0,1120.0
[0 0 0 2 2 2 5 5],47684230628399.0,560.0
[0 0 0 2 2 3 3 3],48457250560412.0,560.0
[0 0 0 2 2 3 3 4],48665533500761.0,1680.0
[0 0 0 2 2 3 3 5],48691227420507.0,1680.0
[0 0 0 2 2 3 4 4],48874150545122.0,1680.0
[0 0 0 2 2 3 4 5],48899869923213.0,3360.0
[0 0 0 2 2 3 5 5],48925590808612.0,1680.0
[0 0 0 2 2 4 4 4],49083101728145.0,560.0
[0 0 0 2 2 4 4 5],49108846564581.0,1680.0
[0 0 0 2 2 4 5 5],49134592908325.0,1680.0
[0 0 0 2 2 5 5 5],49160340759377.0,560.0
[0 0 0 2 3 3 3 3],49714356924331.0,280.0
[0 0 0 2 3 3 3 4],49925574018837.0,1120.0
[0 0 0 2 3 3 3 5],49951537414240.0,1120.0
[0 0 0 2 3 3 4 4],50137126277645.0,1680.0
[0 0 0 2 3 3 4 5],50163115159113.0,3360.0
[0 0 0 2 3 3 5 5],50189105547889.0,1680.0
[0 0 0 2 3 4 4 4],50349013735405.0,1120.0
[0 0 0 2 3 4 4 5],50375028102938.0,3360.0
[0 0 0 2 3 4 5 5],50401043977779.0,3360.0
[0 0 0 2 3 5 5 5],50427061359928.0,1120.0
[0 0 0 2 4 4 4 4],50561236426767.0,280.0
[0 0 0 2 4 4 4 5],50587276280365.0,1120.0
[0 0 0 2 4 4 5 5],50613317641271.0,1680.0
[0 0 0 2 4 5 5 5],50639360509485.0,1120.0
[0 0 0 2 5 5 5 5],50665404885007.0,280.0
[0 0 0 3 3 3 3 3],50993788872784.0,56.0
[0 0 0 3 3 3 3 4],51207957730577.0,280.0
[0 0 0 3 3 3 3 5],51234191451717.0,280.0
[0 0 0 3 3 3 4 4],51422462812962.0,560.0
[0 0 0 3 3 3 4 5],51448722047887.0,1120.0
[0 0 0 3 3 3 5 5],51474982790120.0,560.0
[0 0 0 3 3 4 4 4],51637304154589.0,560.0
[0 0 0 3 3 4 4 5],51663588903299.0,1680.0
[0 0 0 3 3 4 5 5],51689875159317.0,1680.0
[0 0 0 3 3 5 5 5],51716162922643.0,560.0
[0 0 0 3 4 4 4 4],51852481790108.0,280.0
[0 0 0 3 4 4 4 5],51878792052603.0,1120.0
[0 0 0 3 4 4 5 5],51905103822406.0,1680.0
[0 0 0 3 4 5 5 5],51931417099517.0,1120.0
[0 0 0 3 5 5 5 5],51957731883936.0,280.0
[0 0 0 4 4 4 4 4],52067995754169.0,56.0
[0 0 0 4 4 4 4 5],52094331530449.0,280.0
[0 0 0 4 4 4 5 5],52120668814037.0,560.0
[0 0 0 4 4 5 5 5],52147007604933.0,560.0
[0 0 0 4 5 5 5 5],52173347903137.0,280.0
[0 0 0 5 5 5 5 5],52199689708649.0,56.0
[0 0 1 1 1 1 1 1],38335425798694.0,28.0
[0 0 1 1 1 1 1 2],43306431918508.0,168.0
[0 0 1 1 1 1 1 3],44519041693411.0,168.0
[0 0 1 1 1 1 1 4],44730670895536.0,168.0
[0 0 1 1 1 1 1 5],44757673013690.0,168.0
[0 0 1 1 1 1 2 2],48854369487130.0,420.0
[0 0 1 1 1 1 2 3],50193624357027.0,840.0
[0 0 1 1 1 1 2 4],50424606947624.0,840.0
[0 0 1 1 1 1 2 5],50453705568120.0,840.0
[0 0 1 1 1 1 3 3],51558089611068.0,420.0
[0 0 1 1 1 1 3 4],51792480856486.0,840.0
[0 0 1 1 1 1 3 5],51821896664963.0,840.0
[0 0 1 1 1 1 4 4],52027266595322.0,420.0
[0 0 1 1 1 1 4 5],52056712481880.0,840.0
[0 0 1 1 1 1 5 5],52086160119682.0,420.0
[0 0 1 1 1 2 2 2],55037011170280.0,560.0
[0 0 1 1 1 2 2 3],56513904055571.0,1680.0
[0 0 1 1 1 2 2 4],56765632850790.0,1680.0
[0 0 1 1 1 2 2 5],56796945866458.0,1680.0
[0 0 1 1 1 2 3 3],58017832978066.0,1680.0
[0 0 1 1 1 2 3 4],58273163567206.0,3360.0
[0 0 1 1 1 2 3 5],58304806546475.0,3360.0
[0 0 1 1 1 2 4 4],58528904563816.0,1680.0
[0 0 1 1 1 2 4 5],58560578344658.0,3360.0
[0 0 1 1 1 2 5 5],58592253893376.0,1680.0
[0 0 1 1 1 3 3 3],59549052220255.0,560.0
[0 0 1 1 1 3 3 4],59808005649726.0,1680.0
[0 0 1 1 1 3 3 5],59839979553556.0,1680.0
[0 0 1 1 1 3 4 4],60067370685557.0,1680.0
[0 0 1 1 1 3 4 5],60099375418680.0,3360.0
[0 0 1 1 1 3 5 5],60131381919679.0,1680.0
[0 0 1 1 1 4 4 4],60327147362398.0,560.0
[0 0 1 1 1 4 4 5],60359182924814.0,1680.0
[0 0 1 1 1 4 5 5],60391220255106.0,1680.0
[0 0 1 1 1 5 5 5],60423259353274.0,560.0
[0 0 1 1 2 2 2 2],61916812742878.0,420.0
[0 0 1 1 2 2 2 3],63543055934923.0,1680.0
[0 0 1 1 2 2 2 4],63816990944194.0,1680.0
[0 0 1 1 2 2 2 5],63850639823744.0,1680.0
[0 0 1 1 2 2 3 3],65198249544332.0,2520.0
[0 0 1 1 2 2 3 4],65475985404844.0,5040.0
[0 0 1 1 2 2 3 5],65509977189935.0,5040.0
[0 0 1 1 2 2 4 4],65754147794778.0,2520.0
[0 0 1 1 2 2 4 5],65788171104934.0,5040.0
[0 0 1 1 2 2 5 5],65822196199598.0,2520.0
[0 0 1 1 2 3 3 3],66882655707595.0,1680.0
[0 0 1 1 2 3 3 4],67164213742958.0,5040.0
[0 0 1 1 2 3 3 5],67198549394550.0,5040.0
[0 0 1 1 2 3 4 4],67446199506633.0,5040.0
[0 0 1 1 2 3 4 5],67480566711010.0,10080.0
[0 0 1 1 2 3 5 5],67514935699895.0,5040.0
[0 0 1 1 2 4 4 4],67728613033270.0,1680.0
[0 0 1 1 2 4 4 5],67763011790432.0,5040.0
[0 0 1 1 2 4 5 5],67797412332102.0,5040.0
[0 0 1 1 2 5 5 5],67831814658280.0,1680.0
[0 0 1 1 3 3 3 3],68596536930802.0,420.0
[0 0 1 1 3 3 3 4],68881938464626.0,1680.0
[0 0 1 1 3 3 3 5],68916618943679.0,1680.0
[0 0 1 1 3 3 4 4],69167768925652.0,2520.0
[0 0 1 1 3 3 4 5],69202480985210.0,5040.0
[0 0 1 1 3 3 5 5],69237194829276.0,2520.0
[0 0 1 1 3 4 4 4],69454028348530.0,1680.0
[0 0 1 1 3 4 4 5],69488771988593.0,5040.0
[0 0 1 1 3 4 5 5],69523517413164.0,5040.0
[0 0 1 1 3 5 5 5],69558264622243.0,1680.0
[0 0 1 1 4 4 4 4],69740716767910.0,420.0
[0 0 1 1 4 4 4 5],69775491988478.0,1680.0
[0 0 1 1 4 4 5 5],69810268993554.0,2520.0
[0 0 1 1 4 5 5 5],69845047783138.0,1680.0
[0 0 1 1 5 5 5 5],69879828357230.0,420.0
[0 0 1 2 2 2 2 2],69561181695844.0,168.0
[0 0 1 2 2 2 2 3],71349234715563.0,840.0
[0 0 1 2 2 2 2 4],71646904388996.0,840.0
[0 0 1 2 2 2 2 5],71683014177018.0,840.0
[0 0 1 2 2 2 3 3],73168242923106.0,1680.0
[0 0 1 2 2 2 3 4],73469918423320.0,3360.0
[0 0 1 2 2 2 3 5],73506384225143.0,3360.0
[0 0 1 2 2 2 4 4],73772036782808.0,1680.0
[0 0 1 2 2 2 4 5],73808534833188.0,3360.0
[0 0 1 2 2 2 5 5],73845034684708.0,1680.0
[0 0 1 2 2 3 3 3],75018476308963.0,1680.0
[0 0 1 2 2 3 3 4],75324179236768.0,5040.0
[0 0 1 2 2 3 3 5],75361002013352.0,5040.0
[0 0 1 2 2 3 4 4],75630326222737.0,5040.0
[0 0 1 2 2 3 4 5],75667181275598.0,10080.0
[0 0 1 2 2 3 5 5],75704038129599.0,5040.0
[0 0 1 2 2 4 4 4],75936917301520.0,1680.0
[0 0 1 2 2 4 4 5],75973804630658.0,5040.0
[0 0 1 2 2 4 5 5],76010693760936.0,5040.0
[0 0 1 2 2 5 5 5],76047584692354.0,1680.0
[0 0 1 2 3 3 3 3],76900205233224.0,840.0
[0 0 1 2 3 3 3 4],77209957189430.0,3360.0
[0 0 1 2 3 3 3 5],77247137901735.0,3360.0
[0 0 1 2 3 3 4 4],77520154402690.0,5040.0
[0 0 1 2 3 3 4 5],77557367418992.0,10080.0
[0 0 1 2 3 3 5 5],77594582236434.0,5040.0
[0 0 1 2 3 4 4 4],77830796907654.0,3360.0
[0 0 1 2 3 4 4 5],77868042227953.0,10080.0
[0 0 1 2 3 4 5 5],77905289349392.0,10080.0
[0 0 1 2 3 5 5 5],77942538271971.0,3360.0
[0 0 1 2 4 4 4 4],78141884738972.0,840.0
[0 0 1 2 4 4 4 5],78179162363268.0,3360.0
[0 0 1 2 4 4 5 5],78216441788704.0,5040.0
[0 0 1 2 4 5 5 5],78253723015280.0,3360.0
[0 0 1 2 5 5 5 5],78291006042996.0,840.0
[0 0 1 3 3 3 3 3],78813700425579.0,168.0
[0 0 1 3 3 3 3 4],79127523010996.0,840.0
[0 0 1 3 3 3 3 5],79165062619982.0,840.0
[0 0 1 3 3 3 4 4],79441792052357.0,1680.0
[0 0 1 3 3 3 4 5],79479363993060.0,3360.0
[0 0 1 3 3 3 5 5],79516937734903.0,1680.0
[0 0 1 3 3 4 4 4],79756507584312.0,1680.0
[0 0 1 3 3 4 4 5],79794111856732.0,5040.0
[0 0 1 3 3 4 5 5],79831717930292.0,5040.0
[0 0 1 3 3 5 5 5],79869325804992.0,1680.0
[0 0 1 3 4 4 4 4],80071669641511.0,840.0
[0 0 1 3 4 4 4 5],80109306245648.0,3360.0
[0 0 1 3 4 4 5 5],80146944650925.0,5040.0
[0 0 1 3 4 5 5 5],80184584857342.0,3360.0
[0 0 1 3 5 5 5 5],80222226864899.0,840.0
[0 0 1 4 4 4 4 4],80387278258604.0,168.0
[0 0 1 4 4 4 4 5],80424947194458.0,840.0
[0 0 1 4 4 4 5 5],80462617931452.0,1680.0
[0 0 1 4 4 5 5 5],80500290469586.0,1680.0
[0 0 1 4 5 5 5 5],80537964808860.0,840.0
[0 0 1 5 5 5 5 5],80575640949274.0,168.0
[0 0 2 2 2 2 2 2],78042753327298.0,28.0
[0 0 2 2 2 2 2 3],80005850783771.0,168.0
[0 0 2 2 2 2 2 4],80328853259556.0,168.0
[0 0 2 2 2 2 2 5],80367552576520.0,168.0
[0 0 2 2 2 2 3 3],82002000252028.0,420.0
[0 0 2 2 2 2 3 4],82329219448354.0,840.0
[0 0 2 2 2 2 3 5],82368288053699.0,840.0
[0 0 2 2 2 2 4 4],82656898041706.0,420.0
[0 0 2 2 2 2 4 5],82695999619100.0,840.0
[0 0 2 2 2 2 5 5],82735103014266.0,420.0
[0 0 2 2 2 3 3 3],84031479576559.0,560.0
[0 0 2 2 2 3 3 4],84362937371436.0,1680.0
[0 0 2 2 2 3 3 5],84402376226122.0,1680.0
[0 0 2 2 2 3 4 4],84694855762229.0,1680.0
[0 0 2 2 2 3 4 5],84734327616684.0,3360.0
[0 0 2 2 2 3 5 5],84773801288911.0,1680.0
[0 0 2 2 2 4 4 4],85027234783588.0,560.0
[0 0 2 2 2 4 4 5],85066739637812.0,1680.0
[0 0 2 2 2 4 5 5],85106246309808.0,1680.0
[0 0 2 2 2 5 5 5],85145754799576.0,560.0
[0 0 2 2 3 3 3 3],86094566971454.0,420.0
[0 0 2 2 3 3 3 4],86430285242892.0,1680.0
[0 0 2 2 3 3 3 5],86470095307879.0,1680.0
[0 0 2 2 3 3 4 4],86766465309136.0,2520.0
[0 0 2 2 3 3 4 5],86806308401612.0,5040.0
[0 0 2 2 3 3 5 5],86846153311860.0,2520.0
[0 0 2 2 3 4 4 4],87103107204836.0,1680.0
[0 0 2 2 3 4 4 5],87142983324801.0,5040.0
[0 0 2 2 3 4 5 5],87182861262538.0,5040.0
[0 0 2 2 3 5 5 5],87222741018047.0,1680.0
[0 0 2 2 4 4 4 4],87440210964642.0,420.0
[0 0 2 2 4 4 4 5],87480120112096.0,1680.0
[0 0 2 2 4 4 5 5],87520031077322.0,2520.0
[0 0 2 2 4 5 5 5],87559943860320.0,1680.0
[0 0 2 2 5 5 5 5],87599858461090.0,420.0
[0 0 2 3 3 3 3 3],88191541020403.0,168.0
[0 0 2 3 3 3 3 4],88531541646412.0,840.0
[0 0 2 3 3 3 3 5],88571723882660.0,840.0
[0 0 2 3 3 3 4 4],88872005266117.0,1680.0
[0 0 2 3 3 3 4 5],88912220557574.0,3360.0
[0 0 2 3 3 3 5 5],88952437666803.0,1680.0
[0 0 2 3 3 4 4 4],89212931914168.0,1680.0
[0 0 2 3 3 4 4 5],89253180260834.0,5040.0
[0 0 2 3 3 4 5 5],89293430425272.0,5040.0
[0 0 2 3 3 5 5 5],89333682407482.0,1680.0
[0 0 2 3 4 4 4 4],89554321625215.0,840.0
[0 0 2 3 4 4 4 5],89594603027090.0,3360.0
[0 0 2 3 4 4 5 5],89634886246737.0,5040.0
[0 0 2 3 4 5 5 5],89675171284156.0,3360.0
[0 0 2 3 5 5 5 5],89715458139347.0,840.0
[0 0 2 4 4 4 4 4],89896174433908.0,168.0
[0 0 2 4 4 4 4 5],89936488890992.0,840.0
[0 0 2 4 4 4 5 5],89976805165848.0,1680.0
[0 0 2 4 4 5 5 5],90017123258476.0,1680.0
[0 0 2 4 5 5 5 5],90057443168876.0,840.0
[0 0 2 5 5 5 5 5],90097764897048.0,168.0
[0 0 3 3 3 3 3 3],90322680676696.0,28.0
[0 0 3 3 3 3 3 4],90666985535286.0,168.0
[0 0 3 3 3 3 3 5],90707540903755.0,168.0
[0 0 3 3 3 3 4 4],91011754586462.0,420.0
[0 0 3 3 3 3 4 5],91052343037860.0,840.0
[0 0 3 3 3 3 5 5],91092933307030.0,420.0
[0 0 3 3 3 4 4 4],91356987864874.0,560.0
[0 0 3 3 3 4 4 5],91397609399201.0,1680.0
[0 0 3 3 3 4 5 5],91438232751300.0,1680.0
[0 0 3 3 3 5 5 5],91478857921171.0,560.0
[0 0 3 3 4 4 4 4],91702685405172.0,420.0
[0 0 3 3 4 4 4 5],91743340022428.0,1680.0
[0 0 3 3 4 4 5 5],91783996457456.0,2520.0
[0 0 3 3 4 5 5 5],91824654710256.0,1680.0
[0 0 3 3 5 5 5 5],91865314780828.0,420.0
[0 0 3 4 4 4 4 4],92048847242006.0,168.0
[0 0 3 4 4 4 4 5],92089534942191.0,840.0
[0 0 3 4 4 4 5 5],92130224460148.0,1680.0
[0 0 3 4 4 5 5 5],92170915795877.0,1680.0
[0 0 3 4 5 5 5 5],92211608949378.0,840.0
[0 0 3 5 5 5 5 5],92252303920651.0,168.0
[0 0 4 4 4 4 4 4],92395473410026.0,28.0
[0 0 4 4 4 4 4 5],92436194193140.0,168.0
[0 0 4 4 4 4 5 5],92476916794026.0,420.0
[0 0 4 4 4 5 5 5],92517641212684.0,560.0
[0 0 4 4 5 5 5 5],92558367449114.0,420.0
[0 0 4 5 5 5 5 5],92599095503316.0,168.0
[0 0 5 5 5 5 5 5],92639825375290.0,28.0
[0 1 1 1 1 1 1 1],59935240817577.0,8.0
[0 1 1 1 1 1 1 2],67568298872361.0,56.0
[0 1 1 1 1 1 1 3],69399228072834.0,56.0
[0 1 1 1 1 1 1 4],69712271965677.0,56.0
[0 1 1 1 1 1 1 5],69751259281231.0,56.0
[0 1 1 1 1 1 2 2],76067024913273.0,168.0
[0 1 1 1 1 1 2 3],78083915656040.0,336.0
[0 1 1 1 1 1 2 4],78424622055205.0,336.0
[0 1 1 1 1 1 2 5],78466509336311.0,336.0
[0 1 1 1 1 1 3 3],80136874457471.0,168.0
[0 1 1 1 1 1 3 4],80482300781901.0,336.0
[0 1 1 1 1 1 3 5],80524609883692.0,336.0
[0 1 1 1 1 1 4 4],80828251822765.0,168.0
[0 1 1 1 1 1 4 5],80870598962633.0,336.0
[0 1 1 1 1 1 5 5],80912948180841.0,168.0
[0 1 1 1 1 2 2 2],85515448655313.0,280.0
[0 1 1 1 1 2 2 3],87733824334414.0,840.0
[0 1 1 1 1 2 2 4],88104086485211.0,840.0
[0 1 1 1 1 2 2 5],88149026334099.0,840.0
[0 1 1 1 1 2 3 3],89990752116819.0,840.0
[0 1 1 1 1 2 3 4],90365984476761.0,1680.0
[0 1 1 1 1 2 3 5],90411361666234.0,1680.0
[0 1 1 1 1 2 4 4],90741760890609.0,840.0
[0 1 1 1 1 2 4 5],90787176924811.0,1680.0
[0 1 1 1 1 2 5 5],90832595053985.0,840.0
[0 1 1 1 1 3 3 3],92286561822018.0,280.0
[0 1 1 1 1 3 3 4],92666789983595.0,840.0
[0 1 1 1 1 3 3 5],92712605585493.0,840.0
[0 1 1 1 1 3 4 4],93047563536568.0,840.0
[0 1 1 1 1 3 4 5],93093418010915.0,1680.0
[0 1 1 1 1 3 5 5],93139274580234.0,840.0
[0 1 1 1 1 4 4 4],93428882515587.0,280.0
[0 1 1 1 1 4 4 5],93474775862383.0,840.0
[0 1 1 1 1 4 5 5],93520671304151.0,840.0
[0 1 1 1 1 5 5 5],93566568840891.0,280.0
[0 1 1 1 2 2 2 2],96004108561881.0,280.0
[0 1 1 1 2 2 2 3],98440448532516.0,1120.0
[0 1 1 1 2 2 2 4],98842243588695.0,1120.0
[0 1 1 1 2 2 2 5],98890392682435.0,1120.0
[0 1 1 1 2 2 3 3],100917935554195.0,1680.0
[0 1 1 1 2 2 3 4],101324957853219.0,3360.0
[0 1 1 1 2 2 3 5],101373559973764.0,3360.0
[0 1 1 1 2 2 4 4],101732543751521.0,1680.0
[0 1 1 1 2 2 4 5],101781185523447.0,3360.0
[0 1 1 1 2 2 5 5],101829829406977.0,1680.0
[0 1 1 1 2 3 3 3],103436908409208.0,1120.0
[0 1 1 1 2 3 3 4],103849183820767.0,3360.0
[0 1 1 1 2 3 3 5],103898240039957.0,3360.0
[0 1 1 1 2 3 4 4],104262024169094.0,3360.0
[0 1 1 1 2 3 4 5],104311120067385.0,6720.0
[0 1 1 1 2 3 5 5],104360218077280.0,3360.0
[0 1 1 1 2 4 4 4],104675429488839.0,1120.0
[0 1 1 1 2 4 4 5],104724565066231.0,3360.0
[0 1 1 1 2 4 5 5],104773702755227.0,3360.0
[0 1 1 1 2 5 5 5],104822842555827.0,1120.0
[0 1 1 1 3 3 3 3],105997706249445.0,280.0
[0 1 1 1 3 3 3 4],106415260643229.0,1120.0
[0 1 1 1 3 3 3 5],106464772032904.0,1120.0
[0 1 1 1 3 3 4 4],106833381311271.0,1680.0
[0 1 1 1 3 3 4 5],106882932407767.0,3360.0
[0 1 1 1 3 3 5 5],106932485615867.0,1680.0
[0 1 1 1 3 4 4 4],107252068288221.0,1120.0
[0 1 1 1 3 4 4 5],107301659091538.0,3360.0
[0 1 1 1 3 4 5 5],107351252006459.0,3360.0
[0 1 1 1 3 5 5 5],107400847032984.0,1120.0
[0 1 1 1 4 4 4 4],107671321608729.0,280.0
[0 1 1 1 4 4 4 5],107720952118867.0,1120.0
[0 1 1 1 4 4 5 5],107770584740609.0,1680.0
[0 1 1 1 4 5 5 5],107820219473955.0,1120.0
[0 1 1 1 5 5 5 5],107869856318905.0,280.0
[0 1 1 2 2 2 2 2],107630397790377.0,168.0
[0 1 1 2 2 2 2 3],110302170217106.0,840.0
[0 1 1 2 2 2 2 4],110737560488257.0,840.0
[0 1 1 2 2 2 2 5],110789079578759.0,840.0
[0 1 1 2 2 2 3 3],113017797208919.0,1680.0
[0 1 1 2 2 2 3 4],113458678506435.0,3360.0
[0 1 1 2 2 2 3 5],113510666476282.0,3360.0
[0 1 1 2 2 2 4 4],113900143156501.0,1680.0
[0 1 1 2 2 2 4 5],113952171584381.0,3360.0
[0 1 1 2 2 2 5 5],114004202140497.0,1680.0
[0 1 1 2 2 3 3 3],115777626510906.0,1680.0
[0 1 1 2 2 3 3 4],116224024981677.0,5040.0
[0 1 1 2 2 3 3 5],116276482902709.0,5040.0
[0 1 1 2 2 3 4 4],116671008142488.0,5040.0
[0 1 1 2 2 3 4 5],116723506549273.0,10080.0
[0 1 1 2 2 3 5 5],116776007084294.0,5040.0
[0 1 1 2 2 4 4 4],117118576027989.0,1680.0
[0 1 1 2 2 4 4 5],117171114920527.0,5040.0
[0 1 1 2 2 4 5 5],117223655941301.0,5040.0
[0 1 1 2 2 5 5 5],117276199090311.0,1680.0
[0 1 1 2 3 3 3 3],118582006237757.0,840.0
[0 1 1 2 3 3 3 4],119033948028673.0,3360.0
[0 1 1 2 3 3 3 5],119086876972730.0,3360.0
[0 1 1 2 3 3 4 4],119486475847119.0,5040.0
[0 1 1 2 3 3 4 5],119539445304649.0,10080.0
[0 1 1 2 3 3 5 5],119592416890415.0,5040.0
[0 1 1 2 3 4 4 4],119939589727745.0,3360.0
[0 1 1 2 3 4 4 5],119992599698748.0,10080.0
[0 1 1 2 3 4 5 5],120045611797987.0,10080.0
[0 1 1 2 3 5 5 5],120098626025462.0,3360.0
[0 1 1 2 4 4 4 4],120393289705201.0,840.0
[0 1 1 2 4 4 4 5],120446340189677.0,3360.0
[0 1 1 2 4 4 5 5],120499392802389.0,5040.0
[0 1 1 2 4 5 5 5],120552447543337.0,3360.0
[0 1 1 2 5 5 5 5],120605504412521.0,840.0
[0 1 1 3 3 3 3 3],121431284873762.0,168.0
[0 1 1 3 3 3 3 4],121888796131713.0,840.0
[0 1 1 3 3 3 3 5],121942197170635.0,840.0
[0 1 1 3 3 3 4 4],122346894754684.0,1680.0
[0 1 1 3 3 3 4 5],122400336334799.0,3360.0
[0 1 1 3 3 3 5 5],122453780043150.0,1680.0
[0 1 1 3 3 4 4 4],122805580777325.0,1680.0
[0 1 1 3 3 4 4 5],122859062898633.0,5040.0
[0 1 1 3 3 4 5 5],122912547148177.0,5040.0
[0 1 1 3 3 5 5 5],122966033525957.0,1680.0
[0 1 1 3 4 4 4 4],123264854234286.0,840.0
[0 1 1 3 4 4 4 5],123318376896787.0,3360.0
[0 1 1 3 4 4 5 5],123371901687524.0,5040.0
[0 1 1 3 4 5 5 5],123425428606497.0,3360.0
[0 1 1 3 5 5 5 5],123478957653706.0,840.0
[0 1 1 4 4 4 4 4],123724715160217.0,168.0
[0 1 1 4 4 4 4 5],123778278363911.0,840.0
[0 1 1 4 4 4 5 5],123831843695841.0,1680.0
[0 1 1 4 4 5 5 5],123885411156007.0,1680.0
[0 1 1 4 5 5 5 5],123938980744409.0,840.0
[0 1 1 5 5 5 5 5],123992552461047.0,168.0
[0 1 2 2 2 2 2 2],120498917622201.0,56.0
[0 1 2 2 2 2 2 3],123424612327144.0,336.0
[0 1 2 2 2 2 2 4],123895746526097.0,336.0
[0 1 2 2 2 2 2 5],123950800440111.0,336.0
[0 1 2 2 2 2 3 3],126396983340711.0,840.0
[0 1 2 2 2 2 3 4],126873879099369.0,1680.0
[0 1 2 2 2 2 3 5],126929417911588.0,1680.0
[0 1 2 2 2 2 4 4],127351378171749.0,840.0
[0 1 2 2 2 2 4 5],127406958248653.0,1680.0
[0 1 2 2 2 2 5 5],127462540470425.0,840.0
[0 1 2 2 2 3 3 3],129416387370792.0,1120.0
[0 1 2 2 2 3 3 4],129899071113245.0,3360.0
[0 1 2 2 2 3 3 5],129955095895509.0,3360.0
[0 1 2 2 2 3 4 4],130382359506910.0,3360.0
[0 1 2 2 2 3 4 5],130438425581579.0,6720.0
[0 1 2 2 2 3 5 5],130494493801116.0,3360.0
[0 1 2 2 2 4 4 4],130866252586437.0,1120.0
[0 1 2 2 2 4 4 5],130922359953511.0,3360.0
[0 1 2 2 2 4 5 5],130978469465453.0,3360.0
[0 1 2 2 2 5 5 5],131034581122263.0,1120.0
[0 1 2 2 3 3 3 3],132483181494877.0,840.0
[0 1 2 2 3 3 3 4],132971679645215.0,3360.0
[0 1 2 2 3 3 3 5],133028191469364.0,3360.0
[0 1 2 2 3 3 4 4],133460783784255.0,5040.0
[0 1 2 2 3 3 4 5],133517336928529.0,10080.0
[0 1 2 2 3 3 5 5],133573892217671.0,5040.0
[0 1 2 2 3 4 4 4],133950493946647.0,3360.0
[0 1 2 2 3 4 4 5],134007088411046.0,10080.0
[0 1 2 2 3 4 5 5],134063685020313.0,10080.0
[0 1 2 2 3 5 5 5],134120283774448.0,3360.0
[0 1 2 2 4 4 4 4],134440810167041.0,840.0
[0 1 2 2 4 4 4 5],134497445951565.0,3360.0
[0 1 2 2 4 4 5 5],134554083880957.0,5040.0
[0 1 2 2 4 5 5 5],134610723955217.0,3360.0
[0 1 2 2 5 5 5 5],134667366174345.0,840.0
[0 1 2 3 3 3 3 3],135597723160056.0,336.0
[0 1 2 3 3 3 3 4],136092062142369.0,1680.0
[0 1 2 3 3 3 3 5],136149062080243.0,1680.0
[0 1 2 3 3 3 4 4],136587008450874.0,3360.0
[0 1 2 3 3 3 4 5],136644049736593.0,6720.0
[0 1 2 3 3 3 5 5],136701093167180.0,3360.0
[0 1 2 3 3 4 4 4],137082562120221.0,3360.0
[0 1 2 3 3 4 4 5],137139644753785.0,10080.0
[0 1 2 3 3 4 5 5],137196729532217.0,10080.0
[0 1 2 3 3 5 5 5],137253816455517.0,3360.0
[0 1 2 3 4 4 4 4],137578723185060.0,1680.0
[0 1 2 3 4 4 4 5],137635847166469.0,6720.0
[0 1 2 3 4 4 5 5],137692973292746.0,10080.0
[0 1 2 3 4 5 5 5],137750101563891.0,6720.0
[0 1 2 3 5 5 5 5],137807231979904.0,1680.0
[0 1 2 4 4 4 4 4],138075491680041.0,336.0
[0 1 2 4 4 4 4 5],138132657009295.0,1680.0
[0 1 2 4 4 4 5 5],138189824483417.0,3360.0
[0 1 2 4 4 5 5 5],138246994102407.0,3360.0
[0 1 2 4 5 5 5 5],138304165866265.0,1680.0
[0 1 2 5 5 5 5 5],138361339774991.0,336.0
[0 1 3 3 3 3 3 3],138760370183019.0,56.0
[0 1 3 3 3 3 3 4],139260576421397.0,336.0
[0 1 3 3 3 3 3 5],139318065544836.0,336.0
[0 1 3 3 3 3 4 4],139761391323457.0,840.0
[0 1 3 3 3 3 4 5],139818921822461.0,1680.0
[0 1 3 3 3 3 5 5],139876454466333.0,840.0
[0 1 3 3 3 4 4 4],140262814923849.0,1120.0
[0 1 3 3 3 4 4 5],140320386798418.0,3360.0
[0 1 3 3 3 4 5 5],140377960817855.0,3360.0
[0 1 3 3 3 5 5 5],140435536982160.0,1120.0
[0 1 3 3 4 4 4 4],140764847257223.0,840.0
[0 1 3 3 4 4 4 5],140822460507357.0,3360.0
[0 1 3 3 4 4 5 5],140880075902359.0,5040.0
[0 1 3 3 4 5 5 5],140937693442229.0,3360.0
[0 1 3 3 5 5 5 5],140995313126967.0,840.0
[0 1 3 4 4 4 4 4],141267488358229.0,336.0
[0 1 3 4 4 4 4 5],141325142983928.0,1680.0
[0 1 3 4 4 4 5 5],141382799754495.0,3360.0
[0 1 3 4 4 5 5 5],141440458669930.0,3360.0
[0 1 3 4 5 5 5 5],141498119730233.0,1680.0
[0 1 3 5 5 5 5 5],141555782935404.0,336.0
[0 1 4 4 4 4 4 4],141770738261517.0,56.0
[0 1 4 4 4 4 4 5],141828434262781.0,336.0
[0 1 4 4 4 4 5 5],141886132408913.0,840.0
[0 1 4 4 4 5 5 5],141943832699913.0,1120.0
[0 1 4 4 5 5 5 5],142001535135781.0,840.0
[0 1 4 5 5 5 5 5],142059239716517.0,336.0
[0 1 5 5 5 5 5 5],142116946442121.0,56.0
[0 2 2 2 2 2 2 2],134721838377153.0,8.0
[0 2 2 2 2 2 2 3],137920999688190.0,56.0
[0 2 2 2 2 2 2 4],138430114178415.0,56.0
[0 2 2 2 2 2 2 5],138488871817531.0,56.0
[0 2 2 2 2 2 3 3],141169774944091.0,168.0
[0 2 2 2 2 2 3 4],141684928277181.0,336.0
[0 2 2 2 2 2 3 5],141744186999682.0,336.0
[0 2 2 2 2 2 4 4],142200705093065.0,168.0
[0 2 2 2 2 2 4 5],142260005886903.0,336.0
[0 2 2 2 2 2 5 5],142319308842241.0,168.0
[0 2 2 2 2 3 3 3],144468529815546.0,280.0
[0 2 2 2 2 3 3 4],144989748692791.0,840.0
[0 2 2 2 2 3 3 5],145049509570517.0,840.0
[0 2 2 2 2 3 4 4],145511592390320.0,840.0
[0 2 2 2 2 3 4 5],145571395367103.0,1680.0
[0 2 2 2 2 3 5 5],145631200505386.0,840.0
[0 2 2 2 2 4 4 4],146034060942783.0,280.0
[0 2 2 2 2 4 4 5],146093906018623.0,840.0
[0 2 2 2 2 4 5 5],146153753255963.0,840.0
[0 2 2 2 2 5 5 5],146213602654803.0,280.0
[0 2 2 2 3 3 3 3],147817630342845.0,280.0
[0 2 2 2 3 3 3 4],148344941465535.0,1120.0
[0 2 2 2 3 3 3 5],148405205570326.0,1120.0
[0 2 2 2 3 3 4 4],148872878745999.0,1680.0
[0 2 2 2 3 3 4 5],148933184977567.0,3360.0
[0 2 2 2 3 3 5 5],148993493370635.0,1680.0
[0 2 2 2 3 4 4 4],149401442218887.0,1120.0
[0 2 2 2 3 4 4 5],149461790577232.0,3360.0
[0 2 2 2 3 4 5 5],149522141097077.0,3360.0
[0 2 2 2 3 5 5 5],149582493778422.0,1120.0
[0 2 2 2 4 4 4 4],149930631918849.0,280.0
[0 2 2 2 4 4 4 5],149991022403971.0,1120.0
[0 2 2 2 4 4 5 5],150051415050593.0,1680.0
[0 2 2 2 4 5 5 5],150111809858715.0,1120.0
[0 2 2 2 5 5 5 5],150172206828337.0,280.0
[0 2 2 3 3 3 3 3],151217442935878.0,168.0
[0 2 2 3 3 3 3 4],151750873005303.0,840.0
[0 2 2 3 3 3 3 5],151811641408999.0,840.0
[0 2 2 3 3 3 4 4],152284930569992.0,1680.0
[0 2 2 3 3 3 4 5],152345741128185.0,3360.0
[0 2 2 3 3 3 5 5],152406553847878.0,1680.0
[0 2 2 3 3 4 4 4],152819615664595.0,1680.0
[0 2 2 3 3 4 4 5],152880468377285.0,5040.0
[0 2 2 3 3 4 5 5],152941323251475.0,5040.0
[0 2 2 3 3 5 5 5],153002180287165.0,1680.0
[0 2 2 3 4 4 4 4],153354928323762.0,840.0
[0 2 2 3 4 4 4 5],153415823190949.0,3360.0
[0 2 2 3 4 4 5 5],153476720219636.0,5040.0
[0 2 2 3 4 5 5 5],153537619409823.0,3360.0
[0 2 2 3 5 5 5 5],153598520761510.0,840.0
[0 2 2 4 4 4 4 4],153890868582143.0,168.0
[0 2 2 4 4 4 4 5],153951805603827.0,840.0
[0 2 2 4 4 4 5 5],154012744787011.0,1680.0
[0 2 2 4 4 5 5 5],154073686131695.0,1680.0
[0 2 2 4 5 5 5 5],154134629637879.0,840.0
[0 2 2 5 5 5 5 5],154195575305563.0,168.0
[0 2 3 3 3 3 3 3],154668334374135.0,56.0
[0 2 3 3 3 3 3 4],155207910091585.0,336.0
[0 2 3 3 3 3 3 5],155269183866026.0,336.0
[0 2 3 3 3 3 4 4],155748114641789.0,840.0
[0 2 3 3 3 3 4 5],155809430598447.0,1680.0
[0 2 3 3 3 3 5 5],155870748716605.0,840.0
[0 2 3 3 3 4 4 4],156288948059397.0,1120.0
[0 2 3 3 3 4 4 5],156350306198272.0,3360.0
[0 2 3 3 3 4 5 5],156411666498647.0,3360.0
[0 2 3 3 3 5 5 5],156473028960522.0,1120.0
[0 2 3 3 4 4 4 4],156830410379059.0,840.0
[0 2 3 3 4 4 4 5],156891810700151.0,3360.0
[0 2 3 3 4 4 5 5],156953213182743.0,5040.0
[0 2 3 3 4 5 5 5],157014617826835.0,3360.0
[0 2 3 3 5 5 5 5],157076024632427.0,840.0
[0 2 3 4 4 4 4 4],157372501635425.0,336.0
[0 2 3 4 4 4 4 5],157433944138734.0,1680.0
[0 2 3 4 4 4 5 5],157495388803543.0,3360.0
[0 2 3 4 4 5 5 5],157556835629852.0,3360.0
[0 2 3 4 5 5 5 5],157618284617661.0,1680.0
[0 2 3 5 5 5 5 5],157679735766970.0,336.0
[0 2 4 4 4 4 4 4],157915221863145.0,56.0
[0 2 4 4 4 4 4 5],157976706548671.0,336.0
[0 2 4 4 4 4 5 5],158038193395697.0,840.0
[0 2 4 4 4 5 5 5],158099682404223.0,1120.0
[0 2 4 4 5 5 5 5],158161173574249.0,840.0
[0 2 4 5 5 5 5 5],158222666905775.0,336.0
[0 2 5 5 5 5 5 5],158284162398801.0,56.0
[0 3 3 3 3 3 3 3],158170671806706.0,8.0
[0 3 3 3 3 3 3 4],158716419873471.0,56.0
[0 3 3 3 3 3 3 5],158778200090497.0,56.0
[0 3 3 3 3 3 4 4],159262798110480.0,168.0
[0 3 3 3 3 3 4 5],159324620537443.0,336.0
[0 3 3 3 3 3 5 5],159386445125906.0,168.0
[0 3 3 3 3 4 4 4],159809806552383.0,280.0
[0 3 3 3 3 4 4 5],159871671189283.0,840.0
[0 3 3 3 3 4 5 5],159933537987683.0,840.0
[0 3 3 3 3 5 5 5],159995406947583.0,280.0
[0 3 3 3 4 4 4 4],160357445233830.0,280.0
[0 3 3 3 4 4 4 5],160419352080667.0,1120.0
[0 3 3 3 4 4 5 5],160481261089004.0,1680.0
[0 3 3 3 4 5 5 5],160543172258841.0,1120.0
[0 3 3 3 5 5 5 5],160605085590178.0,280.0
[0 3 3 4 4 4 4 4],160905714189471.0,168.0
[0 3 3 4 4 4 4 5],160967663246245.0,840.0
[0 3 3 4 4 4 5 5],161029614464519.0,1680.0
[0 3 3 4 4 5 5 5],161091567844293.0,1680.0
[0 3 3 4 5 5 5 5],161153523385567.0,840.0
[0 3 3 5 5 5 5 5],161215481088341.0,168.0
[0 3 4 4 4 4 4 4],161454613453956.0,56.0
[0 3 4 4 4 4 4 5],161516604720667.0,336.0
[0 3 4 4 4 4 5 5],161578598148878.0,840.0
[0 3 4 4 4 5 5 5],161640593738589.0,1120.0
[0 3 4 4 5 5 5 5],161702591489800.0,840.0
[0 3 4 5 5 5 5 5],161764591402511.0,336.0
[0 3 5 5 5 5 5 5],161826593476722.0,56.0
[0 4 4 4 4 4 4 4],162004143061935.0,8.0
[0 4 4 4 4 4 4 5],162066176538583.0,56.0
[0 4 4 4 4 4 5 5],162128212176731.0,168.0
[0 4 4 4 4 5 5 5],162190249976379.0,280.0
[0 4 4 4 5 5 5 5],162252289937527.0,280.0
[0 4 4 5 5 5 5 5],162314332060175.0,168.0
[0 4 5 5 5 5 5 5],162376376344323.0,56.0
[0 5 5 5 5 5 5 5],162438422789971.0,8.0
[1 1 1 1 1 1 1 1],93426661383488.0,1.0
[1 1 1 1 1 1 1 2],105104000233430.0,8.0
[1 1 1 1 1 1 1 3],107856520518581.0,8.0
[1 1 1 1 1 1 1 4],108317194930592.0,8.0
[1 1 1 1 1 1 1 5],108373142735736.0,8.0
[1 1 1 1 1 1 2 2],118074056593940.0,28.0
[1 1 1 1 1 1 2 3],121098073414885.0,56.0
[1 1 1 1 1 1 2 4],121598013052368.0,56.0
[1 1 1 1 1 1 2 5],121657938617254.0,56.0
[1 1 1 1 1 1 3 3],124173334620274.0,28.0
[1 1 1 1 1 1 3 4],124679755113446.0,56.0
[1 1 1 1 1 1 3 5],124740236027841.0,56.0
[1 1 1 1 1 1 4 4],125186866546032.0,28.0
[1 1 1 1 1 1 4 5],125247395016364.0,56.0
[1 1 1 1 1 1 5 5],125307925925396.0,28.0
[1 1 1 1 1 2 2 2],132458261223698.0,56.0
[1 1 1 1 1 2 2 3],135775520227437.0,168.0
[1 1 1 1 1 2 2 4],136317273082102.0,168.0
[1 1 1 1 1 2 2 5],136381371535400.0,168.0
[1 1 1 1 1 2 3 3],139147369932440.0,168.0
[1 1 1 1 1 2 3 4],139695924016694.0,336.0
[1 1 1 1 1 2 3 5],139760596416321.0,336.0
[1 1 1 1 1 2 4 4],140245192217054.0,168.0
[1 1 1 1 1 2 4 5],140309913062430.0,336.0
[1 1 1 1 1 2 5 5],140374636363138.0,168.0
[1 1 1 1 1 3 3 3],142574232881597.0,56.0
[1 1 1 1 1 3 3 4],143129618888410.0,168.0
[1 1 1 1 1 3 3 5],143194866417086.0,168.0
[1 1 1 1 1 3 4 4],143685720487419.0,168.0
[1 1 1 1 1 3 4 5],143751016489564.0,336.0
[1 1 1 1 1 3 5 5],143816314947041.0,168.0
[1 1 1 1 1 4 4 4],144242537713274.0,56.0
[1 1 1 1 1 4 4 5],144307882188888.0,168.0
[1 1 1 1 1 4 5 5],144373229119834.0,168.0
[1 1 1 1 1 5 5 5],144438578506112.0,56.0
[1 1 1 1 2 2 2 2],148387005463784.0,70.0
[1 1 1 1 2 2 2 3],152020507218677.0,280.0
[1 1 1 1 2 2 2 4],152606724400634.0,280.0
[1 1 1 1 2 2 2 5],152675195444814.0,280.0
[1 1 1 1 2 2 3 3],155712082397154.0,420.0
[1 1 1 1 2 2 3 4],156305428764020.0,840.0
[1 1 1 1 2 2 3 5],156374492517669.0,840.0
[1 1 1 1 2 2 4 4],156899512631584.0,420.0
[1 1 1 1 2 2 4 5],156968625720794.0,840.0
[1 1 1 1 2 2 5 5],157037741281968.0,420.0
[1 1 1 1 2 3 3 3],159462163613705.0,280.0
[1 1 1 1 2 3 3 4],160062670135650.0,840.0
[1 1 1 1 2 3 3 5],160132327781488.0,840.0
[1 1 1 1 2 3 4 4],160663915634383.0,840.0
[1 1 1 1 2 3 4 5],160733622643502.0,1680.0
[1 1 1 1 2 3 5 5],160803332124585.0,840.0
[1 1 1 1 2 4 4 4],161265900144554.0,280.0
[1 1 1 1 2 4 4 5],161335656516954.0,840.0
[1 1 1 1 2 4 5 5],161405415361318.0,840.0
[1 1 1 1 2 5 5 5],161475176677646.0,280.0
[1 1 1 1 3 3 3 3],163271183852420.0,70.0
[1 1 1 1 3 3 3 4],163878881499614.0,280.0
[1 1 1 1 3 3 3 5],163949134220361.0,280.0
[1 1 1 1 3 3 4 4],164487319599686.0,420.0
[1 1 1 1 3 3 4 5],164557621711434.0,840.0
[1 1 1 1 3 3 5 5],164627926295146.0,420.0
[1 1 1 1 3 4 4 4],165096498187286.0,280.0
[1 1 1 1 3 4 4 5],165166849690035.0,840.0
[1 1 1 1 3 4 5 5],165237203664748.0,840.0
[1 1 1 1 3 5 5 5],165307560111425.0,280.0
[1 1 1 1 4 4 4 4],165706417297064.0,70.0
[1 1 1 1 4 4 4 5],165776818190814.0,280.0
[1 1 1 1 4 4 5 5],165847221556528.0,420.0
[1 1 1 1 4 5 5 5],165917627394206.0,280.0
[1 1 1 1 5 5 5 5],165988035703848.0,70.0
[1 1 1 2 2 2 2 2],166000079490878.0,56.0
[1 1 1 2 2 2 2 3],169974117324445.0,280.0
[1 1 1 2 2 2 2 4],170607554309604.0,280.0
[1 1 1 2 2 2 2 5],170680602220936.0,280.0
[1 1 1 2 2 2 3 3],174009849372616.0,560.0
[1 1 1 2 2 2 3 4],174650751079424.0,1120.0
[1 1 1 2 2 2 3 5],174724410629685.0,1120.0
[1 1 1 2 2 2 4 4],175292413879422.0,560.0
[1 1 1 2 2 2 4 5],175366123655056.0,1120.0
[1 1 1 2 2 2 5 5],175439835919286.0,560.0
[1 1 1 2 2 3 3 3],178107718321481.0,560.0
[1 1 1 2 2 3 3 4],178756115997308.0,1680.0
[1 1 1 2 2 3 3 5],178830388369218.0,1680.0
[1 1 1 2 2 3 4 4],179405276242415.0,1680.0
[1 1 1 2 2 3 4 5],179479598867418.0,3360.0
[1 1 1 2 2 3 5 5],179553923981017.0,1680.0
[1 1 1 2 2 4 4 4],180055199091452.0,560.0
[1 1 1 2 2 4 4 5],180129571969548.0,1680.0
[1 1 1 2 2 4 5 5],180203947336240.0,1680.0
[1 1 1 2 2 5 5 5],180278325191528.0,560.0
[1 1 1 2 3 3 3 3],182268167226730.0,280.0
[1 1 1 2 3 3 3 4],182924092118946.0,1120.0
[1 1 1 2 3 3 3 5],182998978495225.0,1120.0
[1 1 1 2 3 3 4 4],183580781056532.0,1680.0
[1 1 1 2 3 3 4 5],183655717713624.0,3360.0
[1 1 1 2 3 3 5 5],183730656859312.0,1680.0
[1 1 1 2 3 4 4 4],184238234074138.0,1120.0
[1 1 1 2 3 4 4 5],184313221012043.0,3360.0
[1 1 1 2 3 4 5 5],184388210438544.0,3360.0
[1 1 1 2 3 5 5 5],184463202353641.0,1120.0
[1 1 1 2 4 4 4 4],184896451206414.0,280.0
[1 1 1 2 4 4 4 5],184971488425132.0,1120.0
[1 1 1 2 4 4 5 5],185046528132446.0,1680.0
[1 1 1 2 4 5 5 5],185121570328356.0,1120.0
[1 1 1 2 5 5 5 5],185196615012862.0,280.0
[1 1 1 3 3 3 3 3],186491639513653.0,56.0
[1 1 1 3 3 3 3 4],187155122869628.0,280.0
[1 1 1 3 3 3 3 5],187230624432996.0,280.0
[1 1 1 3 3 3 4 4],187819371747063.0,560.0
[1 1 1 3 3 3 4 5],187894923618964.0,1120.0
[1 1 1 3 3 3 5 5],187970477979461.0,560.0
[1 1 1 3 3 4 4 4],188484386180608.0,560.0
[1 1 1 3 3 4 4 5],188559988361042.0,1680.0
[1 1 1 3 3 4 5 5],188635593030072.0,1680.0
[1 1 1 3 3 5 5 5],188711200187698.0,560.0
[1 1 1 3 4 4 4 4],189150166204913.0,280.0
[1 1 1 3 4 4 4 5],189225818693880.0,1120.0
[1 1 1 3 4 4 5 5],189301473671443.0,1680.0
[1 1 1 3 4 5 5 5],189377131137602.0,1120.0
[1 1 1 3 5 5 5 5],189452791092357.0,280.0
[1 1 1 4 4 4 4 4],189816711854628.0,56.0
[1 1 1 4 4 4 4 5],189892414652128.0,280.0
[1 1 1 4 4 4 5 5],189968119938224.0,560.0
[1 1 1 4 4 5 5 5],190043827712916.0,560.0
[1 1 1 4 5 5 5 5],190119537976204.0,280.0
[1 1 1 5 5 5 5 5],190195250728088.0,56.0
[1 1 2 2 2 2 2 2],185447118054860.0,28.0
[1 1 2 2 2 2 2 3],189787315891581.0,168.0
[1 1 2 2 2 2 2 4],190470833769052.0,168.0
[1 1 2 2 2 2 2 5],190548667397606.0,168.0
[1 1 2 2 2 2 3 3],194192968465826.0,420.0
[1 1 2 2 2 2 3 4],194884294183106.0,840.0
[1 1 2 2 2 2 3 5],194962758546369.0,840.0
[1 1 2 2 2 2 4 4],195576404793968.0,420.0
[1 1 2 2 2 2 4 5],195654920272416.0,840.0
[1 1 2 2 2 2 5 5],195733438256092.0,420.0
[1 1 2 2 2 3 3 3],198664528535285.0,560.0
[1 1 2 2 2 3 3 4],199363693616944.0,1680.0
[1 1 2 2 2 3 3 5],199442789897636.0,1680.0
[1 1 2 2 2 3 4 4],200063645068275.0,1680.0
[1 1 2 2 2 3 4 5],200142792491872.0,3360.0
[1 1 2 2 2 3 5 5],200221942420697.0,1680.0
[1 1 2 2 2 4 4 4],200764382923928.0,560.0
[1 1 2 2 2 4 4 5],200843581490430.0,1680.0
[1 1 2 2 2 4 5 5],200922782562160.0,1680.0
[1 1 2 2 2 5 5 5],201001986139118.0,560.0
[1 1 2 2 3 3 3 3],203202449227248.0,420.0
[1 1 2 2 3 3 3 4],203909485197856.0,1680.0
[1 1 2 2 3 3 3 5],203989214578697.0,1680.0
[1 1 2 2 3 3 4 4],204617309014226.0,2520.0
[1 1 2 2 3 3 4 5],204697089565692.0,5040.0
[1 1 2 2 3 3 5 5],204776872622386.0,2520.0
[1 1 2 2 3 4 4 4],205325920711008.0,1680.0
[1 1 2 2 3 4 4 5],205405752433099.0,5040.0
[1 1 2 2 3 4 5 5],205485586660418.0,5040.0
[1 1 2 2 3 5 5 5],205565423392965.0,1680.0
[1 1 2 2 4 4 4 4],206035320322852.0,420.0
[1 1 2 2 4 4 4 5],206115203215568.0,1680.0
[1 1 2 2 4 4 5 5],206195088613512.0,2520.0
[1 1 2 2 4 5 5 5],206274976516684.0,1680.0
[1 1 2 2 5 5 5 5],206354866925084.0,420.0
[1 1 2 3 3 3 3 3],207807184038605.0,168.0
[1 1 2 3 3 3 3 4],208522122422732.0,840.0
[1 1 2 3 3 3 3 5],208602486086442.0,840.0
[1 1 2 3 3 3 4 4],209237850128711.0,1680.0
[1 1 2 3 3 3 4 5],209318264990766.0,3360.0
[1 1 2 3 3 3 5 5],209398682358049.0,1680.0
[1 1 2 3 3 4 4 4],209954367191192.0,1680.0
[1 1 2 3 3 4 4 5],210034833251592.0,5040.0
[1 1 2 3 3 4 5 5],210115301817220.0,5040.0
[1 1 2 3 3 5 5 5],210195772888076.0,1680.0
[1 1 2 3 4 4 4 4],210671673644825.0,840.0
[1 1 2 3 4 4 4 5],210752190903570.0,3360.0
[1 1 2 3 4 4 5 5],210832710667543.0,5040.0
[1 1 2 3 4 5 5 5],210913232936744.0,3360.0
[1 1 2 3 5 5 5 5],210993757711173.0,840.0
[1 1 2 4 4 4 4 4],211389769524260.0,168.0
[1 1 2 4 4 4 4 5],211470337981350.0,840.0
[1 1 2 4 4 4 5 5],211550908943668.0,1680.0
[1 1 2 4 4 5 5 5],211631482411214.0,1680.0
[1 1 2 4 5 5 5 5],211712058383988.0,840.0
[1 1 2 5 5 5 5 5],211792636861990.0,168.0
[1 1 3 3 3 3 3 3],212479186835846.0,28.0
[1 1 3 3 3 3 3 4],213202059158062.0,168.0
[1 1 3 3 3 3 3 5],213283058287361.0,168.0
[1 1 3 3 3 3 4 4],213925722278220.0,420.0
[1 1 3 3 3 3 4 5],214006772633584.0,840.0
[1 1 3 3 3 3 5 5],214087825494176.0,420.0
[1 1 3 3 3 4 4 4],214650176230970.0,560.0
[1 1 3 3 3 4 4 5],214731277812399.0,1680.0
[1 1 3 3 3 4 5 5],214812381899056.0,1680.0
[1 1 3 3 3 5 5 5],214893488490941.0,560.0
[1 1 3 3 4 4 4 4],215375421050962.0,420.0
[1 1 3 3 4 4 4 5],215456573858456.0,1680.0
[1 1 3 3 4 4 5 5],215537729171178.0,2520.0
[1 1 3 3 4 5 5 5],215618886989128.0,1680.0
[1 1 3 3 5 5 5 5],215700047312306.0,420.0
[1 1 3 4 4 4 4 4],216101456772846.0,168.0
[1 1 3 4 4 4 4 5],216182660806405.0,840.0
[1 1 3 4 4 4 5 5],216263867345192.0,1680.0
[1 1 3 4 4 5 5 5],216345076389207.0,1680.0
[1 1 3 4 5 5 5 5],216426287938450.0,840.0
[1 1 3 5 5 5 5 5],216507501992921.0,168.0
[1 1 4 4 4 4 4 4],216828283431272.0,28.0
[1 1 4 4 4 4 4 5],216909538690896.0,168.0
[1 1 4 4 4 4 5 5],216990796455748.0,420.0
[1 1 4 4 4 5 5 5],217072056725828.0,560.0
[1 1 4 4 5 5 5 5],217153319501136.0,420.0
[1 1 4 5 5 5 5 5],217234584781672.0,168.0
[1 1 5 5 5 5 5 5],217315852567436.0,28.0
[1 2 2 2 2 2 2 2],206888053700810.0,8.0
[1 2 2 2 2 2 2 3],211621403899925.0,56.0
[1 2 2 2 2 2 2 4],212357970619418.0,56.0
[1 2 2 2 2 2 2 5],212440803389064.0,56.0
[1 2 2 2 2 2 3 3],216424110754584.0,168.0
[1 2 2 2 2 2 3 4],217168836013466.0,336.0
[1 2 2 2 2 2 3 5],217252318779921.0,336.0
[1 2 2 2 2 2 4 4],217914370174222.0,168.0
[1 2 2 2 2 2 4 5],217997904945674.0,336.0
[1 2 2 2 2 2 5 5],218081442238986.0,168.0
[1 2 2 2 2 3 3 3],221296637094077.0,280.0
[1 2 2 2 2 3 3 4],222049552694118.0,840.0
[1 2 2 2 2 3 3 5],222133686640102.0,840.0
[1 2 2 2 2 3 4 4],222803278672123.0,840.0
[1 2 2 2 2 3 4 5],222887464650824.0,1680.0
[1 2 2 2 2 3 5 5],222971653151385.0,840.0
[1 2 2 2 2 4 4 4],223557815062742.0,280.0
[1 2 2 2 2 4 4 5],223642053074160.0,840.0
[1 2 2 2 2 4 5 5],223726293607438.0,840.0
[1 2 2 2 2 5 5 5],223810536662576.0,280.0
[1 2 2 2 3 3 3 3],226239446117294.0,280.0
[1 2 2 2 3 3 3 4],227000583860264.0,1120.0
[1 2 2 2 3 3 3 5],227085370168497.0,1120.0
[1 2 2 2 3 3 4 4],227762533457288.0,1680.0
[1 2 2 2 3 3 4 5],227847371825958.0,3360.0
[1 2 2 2 3 3 5 5],227932212716488.0,1680.0
[1 2 2 2 3 4 4 4],228525294943016.0,1120.0
[1 2 2 2 3 4 4 5],228610185372123.0,3360.0
[1 2 2 2 3 4 5 5],228695078323090.0,3360.0
[1 2 2 2 3 5 5 5],228779973795917.0,1120.0
[1 2 2 2 4 4 4 4],229288868352098.0,280.0
[1 2 2 2 4 4 4 5],229373810841642.0,1120.0
[1 2 2 2 4 4 5 5],229458755853046.0,1680.0
[1 2 2 2 4 5 5 5],229543703386310.0,1120.0
[1 2 2 2 5 5 5 5],229628653441434.0,280.0
[1 2 2 3 3 3 3 3],231253001392725.0,168.0
[1 2 2 3 3 3 3 4],232022393080394.0,840.0
[1 2 2 3 3 3 3 5],232107832933596.0,840.0
[1 2 2 3 3 3 4 4],232792598098207.0,1680.0
[1 2 2 3 3 3 4 5],232878090039566.0,3360.0
[1 2 2 3 3 3 5 5],232963584502785.0,1680.0
[1 2 2 3 3 4 4 4],233563616480814.0,1680.0
[1 2 2 3 3 4 4 5],233649160510330.0,5040.0
[1 2 2 3 3 4 5 5],233734707061706.0,5040.0
[1 2 2 3 3 5 5 5],233820256134942.0,1680.0
[1 2 2 3 4 4 4 4],234335448262865.0,840.0
[1 2 2 3 4 4 4 5],234421044380538.0,3360.0
[1 2 2 3 4 4 5 5],234506643020071.0,5040.0
[1 2 2 3 4 5 5 5],234592244181464.0,3360.0
[1 2 2 3 5 5 5 5],234677847864717.0,840.0
[1 2 2 4 4 4 4 4],235108093479010.0,168.0
[1 2 2 4 4 4 4 5],235193741684840.0,840.0
[1 2 2 4 4 4 5 5],235279392412530.0,1680.0
[1 2 2 4 4 5 5 5],235365045662080.0,1680.0
[1 2 2 4 5 5 5 5],235450701433490.0,840.0
[1 2 2 5 5 5 5 5],235536359726760.0,168.0
[1 2 3 3 3 3 3 3],236337766858460.0,56.0
[1 2 3 3 3 3 3 4],237115444292598.0,336.0
[1 2 3 3 3 3 3 5],237201538873489.0,336.0
[1 2 3 3 3 3 4 4],237893936532970.0,840.0
[1 2 3 3 3 3 4 5],237980083229738.0,1680.0
[1 2 3 3 3 3 5 5],238066232448366.0,840.0
[1 2 3 3 3 4 4 4],238673243614226.0,1120.0
[1 2 3 3 3 4 4 5],238759442426871.0,3360.0
[1 2 3 3 3 4 5 5],238845643761376.0,3360.0
[1 2 3 3 3 5 5 5],238931847617741.0,1120.0
[1 2 3 3 4 4 4 4],239453365571016.0,840.0
[1 2 3 3 4 4 4 5],239539616499538.0,3360.0
[1 2 3 3 4 4 5 5],239625869949920.0,5040.0
[1 2 3 3 4 5 5 5],239712125922162.0,3360.0
[1 2 3 3 5 5 5 5],239798384416264.0,840.0
[1 2 3 4 4 4 4 4],240234302437990.0,336.0
[1 2 3 4 4 4 4 5],240320605482389.0,1680.0
[1 2 3 4 4 4 5 5],240406911048648.0,3360.0
[1 2 3 4 4 5 5 5],240493219136767.0,3360.0
[1 2 3 4 5 5 5 5],240579529746746.0,1680.0
[1 2 3 5 5 5 5 5],240665842878585.0,336.0
[1 2 4 4 4 4 4 4],241016054249798.0,56.0
[1 2 4 4 4 4 4 5],241102409410074.0,336.0
[1 2 4 4 4 4 5 5],241188767092210.0,840.0
[1 2 4 4 4 5 5 5],241275127296206.0,1120.0
[1 2 4 4 5 5 5 5],241361490022062.0,840.0
[1 2 4 5 5 5 5 5],241447855269778.0,336.0
[1 2 5 5 5 5 5 5],241534223039354.0,56.0
[1 3 3 3 3 3 3 3],241494206822189.0,8.0
[1 3 3 3 3 3 3 4],242280201804566.0,56.0
[1 3 3 3 3 3 3 5],242366952295866.0,56.0
[1 3 3 3 3 3 4 4],243067013069267.0,168.0
[1 3 3 3 3 3 4 5],243153815704164.0,336.0
[1 3 3 3 3 3 5 5],243240620860921.0,168.0
[1 3 3 3 3 4 4 4],243854640650942.0,280.0
[1 3 3 3 3 4 4 5],243941495429436.0,840.0
[1 3 3 3 3 4 5 5],244028352729790.0,840.0
[1 3 3 3 3 5 5 5],244115212552004.0,280.0
[1 3 3 3 4 4 4 4],244643084584241.0,280.0
[1 3 3 3 4 4 4 5],244729991506332.0,1120.0
[1 3 3 3 4 4 5 5],244816900950283.0,1680.0
[1 3 3 3 4 5 5 5],244903812916094.0,1120.0
[1 3 3 3 5 5 5 5],244990727403765.0,280.0
[1 3 3 4 4 4 4 4],245432344903814.0,168.0
[1 3 3 4 4 4 4 5],245519303969502.0,840.0
[1 3 3 4 4 4 5 5],245606265557050.0,1680.0
[1 3 3 4 4 5 5 5],245693229666458.0,1680.0
[1 3 3 4 5 5 5 5],245780196297726.0,840.0
[1 3 3 5 5 5 5 5],245867165450854.0,168.0
[1 3 4 4 4 4 4 4],246222421644311.0,56.0
[1 3 4 4 4 4 4 5],246309432853596.0,336.0
[1 3 4 4 4 4 5 5],246396446584741.0,840.0
[1 3 4 4 4 5 5 5],246483462837746.0,1120.0
[1 3 4 4 5 5 5 5],246570481612611.0,840.0
[1 3 4 5 5 5 5 5],246657502909336.0,336.0
[1 3 5 5 5 5 5 5],246744526727921.0,56.0
[1 4 4 4 4 4 4 4],247013314840382.0,8.0
[1 4 4 4 4 4 4 5],247100378193264.0,56.0
[1 4 4 4 4 4 5 5],247187444068006.0,168.0
[1 4 4 4 4 5 5 5],247274512464608.0,280.0
[1 4 4 4 5 5 5 5],247361583383070.0,280.0
[1 4 4 5 5 5 5 5],247448656823392.0,168.0
[1 4 5 5 5 5 5 5],247535732785574.0,56.0
[1 5 5 5 5 5 5 5],247622811269616.0,8.0
[2 2 2 2 2 2 2 2],230493577475408.0,1.0
[2 2 2 2 2 2 2 3],235648478668717.0,8.0
[2 2 2 2 2 2 2 4],236441170287942.0,8.0
[2 2 2 2 2 2 2 5],236529220196350.0,8.0
[2 2 2 2 2 2 3 3],240876781493890.0,28.0
[2 2 2 2 2 2 3 4],241677989933504.0,56.0
[2 2 2 2 2 2 3 5],241766709267141.0,56.0
[2 2 2 2 2 2 4 4],242480031491184.0,28.0
[2 2 2 2 2 2 4 5],242568803719630.0,56.0
[2 2 2 2 2 2 5 5],242657578486568.0,28.0
[2 2 2 2 2 3 3 3],246178958851817.0,56.0
[2 2 2 2 2 3 3 4],246988716190790.0,168.0
[2 2 2 2 2 3 3 5],247078106132376.0,168.0
[2 2 2 2 2 3 4 4],247799308123919.0,168.0
[2 2 2 2 2 3 4 5],247888750988034.0,336.0
[2 2 2 2 2 3 5 5],247978196390641.0,168.0
[2 2 2 2 2 4 4 4],248610734685854.0,56.0
[2 2 2 2 2 4 4 5],248700230472498.0,168.0
[2 2 2 2 2 4 5 5],248789728797634.0,168.0
[2 2 2 2 2 5 5 5],248879229661262.0,56.0
[2 2 2 2 3 3 3 3],251555484012988.0,70.0
[2 2 2 2 3 3 3 4],252373822330290.0,280.0
[2 2 2 2 3 3 3 5],252463884062545.0,280.0
[2 2 2 2 3 3 4 4],253192996717838.0,420.0
[2 2 2 2 3 3 4 5],253283111400342.0,840.0
[2 2 2 2 3 3 5 5],253373228621338.0,420.0
[2 2 2 2 3 4 4 4],254013007210282.0,280.0
[2 2 2 2 3 4 4 5],254103174843035.0,840.0
[2 2 2 2 3 4 5 5],254193345014280.0,840.0
[2 2 2 2 3 5 5 5],254283517724017.0,280.0
[2 2 2 2 4 4 4 4],254833853842272.0,70.0
[2 2 2 2 4 4 4 5],254924074425274.0,280.0
[2 2 2 2 4 4 5 5],255014297546768.0,420.0
[2 2 2 2 4 5 5 5],255104523206754.0,280.0
[2 2 2 2 5 5 5 5],255194751405232.0,70.0
[2 2 2 3 3 3 3 3],257006830617493.0,56.0
[2 2 2 3 3 3 3 4],257833781992094.0,280.0
[2 2 2 3 3 3 3 5],257924516697738.0,280.0
[2 2 2 3 3 3 4 4],258661570913031.0,560.0
[2 2 2 3 3 3 4 5],258752358596644.0,1120.0
[2 2 2 3 3 3 5 5],258843148818749.0,560.0
[2 2 2 3 3 4 4 4],259490197414954.0,560.0
[2 2 2 3 3 4 4 5],259581038076536.0,1680.0
[2 2 2 3 3 4 5 5],259671881276610.0,1680.0
[2 2 2 3 3 5 5 5],259762727015176.0,560.0
[2 2 2 3 4 4 4 4],260319661532513.0,280.0
[2 2 2 3 4 4 4 5],260410555172064.0,1120.0
[2 2 2 3 4 4 5 5],260501451350107.0,1680.0
[2 2 2 3 4 5 5 5],260592350066642.0,1120.0
[2 2 2 3 5 5 5 5],260683251321669.0,280.0
[2 2 2 4 4 4 4 4],261149963300358.0,56.0
[2 2 2 4 4 4 4 5],261240909917878.0,280.0
[2 2 2 4 4 4 5 5],261331859073890.0,560.0
[2 2 2 4 4 5 5 5],261422810768394.0,560.0
[2 2 2 4 5 5 5 5],261513765001390.0,280.0
[2 2 2 5 5 5 5 5],261604721772878.0,56.0
[2 2 3 3 3 3 3 3],262533472675022.0,28.0
[2 2 3 3 3 3 3 4],263369069185892.0,168.0
[2 2 3 3 3 3 3 5],263460478047645.0,168.0
[2 2 3 3 3 3 4 4],264205504719188.0,420.0
[2 2 3 3 3 3 4 5],264296966586630.0,840.0
[2 2 3 3 3 3 5 5],264388430992564.0,420.0
[2 2 3 3 3 4 4 4],265042779309560.0,560.0
[2 2 3 3 3 4 4 5],265134294182691.0,1680.0
[2 2 3 3 3 4 5 5],265225811594314.0,1680.0
[2 2 3 3 3 5 5 5],265317331544429.0,560.0
[2 2 3 3 4 4 4 4],265880892991658.0,420.0
[2 2 3 3 4 4 4 5],265972460870478.0,1680.0
[2 2 3 3 4 4 5 5],266064031287790.0,2520.0
[2 2 3 3 4 5 5 5],266155604243594.0,1680.0
[2 2 3 3 5 5 5 5],266247179737890.0,420.0
[2 2 3 4 4 4 4 4],266719845800132.0,168.0
[2 2 3 4 4 4 4 5],266811466684641.0,840.0
[2 2 3 4 4 4 5 5],266903090107642.0,1680.0
[2 2 3 4 4 5 5 5],266994716069135.0,1680.0
[2 2 3 4 5 5 5 5],267086344569120.0,840.0
[2 2 3 5 5 5 5 5],267177975607597.0,168.0
[2 2 4 4 4 4 4 4],267559637769632.0,28.0
[2 2 4 4 4 4 4 5],267651311659830.0,168.0
[2 2 4 4 4 4 5 5],267742988088520.0,420.0
[2 2 4 4 4 5 5 5],267834667055702.0,560.0
[2 2 4 4 5 5 5 5],267926348561376.0,420.0
[2 2 4 5 5 5 5 5],268018032605542.0,168.0
[2 2 5 5 5 5 5 5],268109719188200.0,28.0
[2 3 3 3 3 3 3 3],268135884564865.0,8.0
[2 3 3 3 3 3 3 4],268980158290974.0,56.0
[2 3 3 3 3 3 3 5],269072242491556.0,56.0
[2 3 3 3 3 3 4 4],269825272515599.0,168.0
[2 3 3 3 3 3 4 5],269917409749590.0,336.0
[2 3 3 3 3 3 5 5],270009549522073.0,168.0
[2 3 3 3 3 4 4 4],270671227273390.0,280.0
[2 3 3 3 3 4 4 5],270763417540790.0,840.0
[2 3 3 3 3 4 5 5],270855610346682.0,840.0
[2 3 3 3 3 5 5 5],270947805691066.0,280.0
[2 3 3 3 4 4 4 4],271518022598997.0,280.0
[2 3 3 3 4 4 4 5],271610265899806.0,1120.0
[2 3 3 3 4 4 5 5],271702511739107.0,1680.0
[2 3 3 3 4 5 5 5],271794760116900.0,1120.0
[2 3 3 3 5 5 5 5],271887011033185.0,280.0
[2 3 3 4 4 4 4 4],272365658527070.0,168.0
[2 3 3 4 4 4 4 5],272457954861288.0,840.0
[2 3 3 4 4 4 5 5],272550253733998.0,1680.0
[2 3 3 4 4 5 5 5],272642555145200.0,1680.0
[2 3 3 4 5 5 5 5],272734859094894.0,840.0
[2 3 3 5 5 5 5 5],272827165583080.0,168.0
[2 3 4 4 4 4 4 4],273214135092259.0,56.0
[2 3 4 4 4 4 4 5],273306484459886.0,336.0
[2 3 4 4 4 4 5 5],273398836366005.0,840.0
[2 3 4 4 4 5 5 5],273491190810616.0,1120.0
[2 3 4 4 5 5 5 5],273583547793719.0,840.0
[2 3 4 5 5 5 5 5],273675907315314.0,336.0
[2 3 5 5 5 5 5 5],273768269375401.0,56.0
[2 4 4 4 4 4 4 4],274063452329214.0,8.0
[2 4 4 4 4 4 4 5],274155854730250.0,56.0
[2 4 4 4 4 4 5 5],274248259669778.0,168.0
[2 4 4 4 4 5 5 5],274340667147798.0,280.0
[2 4 4 4 5 5 5 5],274433077164310.0,280.0
[2 4 4 5 5 5 5 5],274525489719314.0,168.0
[2 4 5 5 5 5 5 5],274617904812810.0,56.0
[2 5 5 5 5 5 5 5],274710322444798.0,8.0
[3 3 3 3 3 3 3 3],273814541035912.0,1.0
[3 3 3 3 3 3 3 4],274667524056230.0,8.0
[3 3 3 3 3 3 3 5],274760284778361.0,8.0
[3 3 3 3 3 3 4 4],275521349051154.0,28.0
[3 3 3 3 3 3 4 5],275614162834414.0,56.0
[3 3 3 3 3 3 5 5],275706979156166.0,28.0
[3 3 3 3 3 4 4 4],276376016055334.0,56.0
[3 3 3 3 3 4 4 5],276468882899723.0,168.0
[3 3 3 3 3 4 5 5],276561752282604.0,168.0
[3 3 3 3 3 5 5 5],276654624203977.0,56.0
[3 3 3 3 4 4 4 4],277231525103420.0,70.0
[3 3 3 3 4 4 4 5],277324445008938.0,280.0
[3 3 3 3 4 4 5 5],277417367452948.0,420.0
[3 3 3 3 4 5 5 5],277510292435450.0,280.0
[3 3 3 3 5 5 5 5],277603219956444.0,70.0
[3 3 3 4 4 4 4 4],278087876230062.0,56.0
[3 3 3 4 4 4 4 5],278180849196709.0,280.0
[3 3 3 4 4 4 5 5],278273824701848.0,560.0
[3 3 3 4 4 5 5 5],278366802745479.0,560.0
[3 3 3 4 5 5 5 5],278459783327602.0,280.0
[3 3 3 5 5 5 5 5],278552766448217.0,56.0
[3 3 4 4 4 4 4 4],278945069469910.0,28.0
[3 3 4 4 4 4 4 5],279038095497686.0,168.0
[3 3 4 4 4 4 5 5],279131124063954.0,420.0
[3 3 4 4 4 5 5 5],279224155168714.0,560.0
[3 3 4 4 5 5 5 5],279317188811966.0,420.0
[3 3 4 5 5 5 5 5],279410224993710.0,168.0
[3 3 5 5 5 5 5 5],279503263713946.0,28.0
[3 4 4 4 4 4 4 4],279803104857614.0,8.0
[3 4 4 4 4 4 4 5],279896183946519.0,56.0
[3 4 4 4 4 4 5 5],279989265573916.0,168.0
[3 4 4 4 4 5 5 5],280082349739805.0,280.0
[3 4 4 4 5 5 5 5],280175436444186.0,280.0
[3 4 4 5 5 5 5 5],280268525687059.0,168.0
[3 4 5 5 5 5 5 5],280361617468424.0,56.0
[3 5 5 5 5 5 5 5],280454711788281.0,8.0
[4 4 4 4 4 4 4 4],280661982427824.0,1.0
[4 4 4 4 4 4 4 5],280755114577858.0,8.0
[4 4 4 4 4 4 5 5],280848249266384.0,28.0
[4 4 4 4 4 5 5 5],280941386493402.0,56.0
[4 4 4 4 5 5 5 5],281034526258912.0,70.0
[4 4 4 5 5 5 5 5],281127668562914.0,56.0
[4 4 5 5 5 5 5 5],281220813405408.0,28.0
[4 5 5 5 5 5 5 5],281313960786394.0,8.0
[5 5 5 5 5 5 5 5],281407110705872.0,1.0
